Tidy Text Mining Learning
…
Since we want to tidy the data word-by-word, it would be useful create a new data frame that also includes columns as to where each word is found by line number and chapter. To do this, we will use group_by(), mutate(), and finally ungroup():

## load `janeaustenr`, `dplyr`, and `stringr` packages

original_books <- austen_books() %>% 
  group_by(book) %>% 
  mutate(linenumber = row_number(),
         chapter = cumsum(str_detect(text, regex("^chapter [\\divxlc]",
                                                 ignore_case = TRUE)))) %>% 
  ungroup()

original_books

## # A tibble: 73,422 x 4
##    text                  book                linenumber chapter
##    <chr>                 <fct>                    <int>   <int>
##  1 SENSE AND SENSIBILITY Sense & Sensibility          1       0
##  2 ""                    Sense & Sensibility          2       0
##  3 by Jane Austen        Sense & Sensibility          3       0
##  4 ""                    Sense & Sensibility          4       0
##  5 (1811)                Sense & Sensibility          5       0
##  6 ""                    Sense & Sensibility          6       0
##  7 ""                    Sense & Sensibility          7       0
##  8 ""                    Sense & Sensibility          8       0
##  9 ""                    Sense & Sensibility          9       0
## 10 CHAPTER 1             Sense & Sensibility         10       1
## # … with 73,412 more rows

Here we have the data frame original_books which includes all the data from austen_books but also adds linenumber and chapter as columns.

Next, we nee to tokenize the text in a one-token-per-row format with unnest_tokens():

tidy_books <- original_books %>% 
  unnest_tokens(word, text)
tidy_books

## # A tibble: 725,055 x 4
##    book                linenumber chapter word       
##    <fct>                    <int>   <int> <chr>      
##  1 Sense & Sensibility          1       0 sense      
##  2 Sense & Sensibility          1       0 and        
##  3 Sense & Sensibility          1       0 sensibility
##  4 Sense & Sensibility          3       0 by         
##  5 Sense & Sensibility          3       0 jane       
##  6 Sense & Sensibility          3       0 austen     
##  7 Sense & Sensibility          5       0 1811       
##  8 Sense & Sensibility         10       1 chapter    
##  9 Sense & Sensibility         10       1 1          
## 10 Sense & Sensibility         13       1 the        
## # … with 725,045 more rows

Now the data is in the tidy text data format.

We’ll notice that on observation 10, the word “the” is present. The word “the” is considered a stop word, a word (such as of, to, a) typically not useful for analysis. View(stop_words) will show the list of stop words by lexicon. To remove the stop words, we can use anti_join(). To use only one particular lexicon, we can add filter().

data(stop_words)

tidy_books2 <- tidy_books %>% 
  anti_join(stop_words)
tidy_books2

## # A tibble: 217,609 x 4
##    book                linenumber chapter word       
##    <fct>                    <int>   <int> <chr>      
##  1 Sense & Sensibility          1       0 sense      
##  2 Sense & Sensibility          1       0 sensibility
##  3 Sense & Sensibility          3       0 jane       
##  4 Sense & Sensibility          3       0 austen     
##  5 Sense & Sensibility          5       0 1811       
##  6 Sense & Sensibility         10       1 chapter    
##  7 Sense & Sensibility         10       1 1          
##  8 Sense & Sensibility         13       1 family     
##  9 Sense & Sensibility         13       1 dashwood   
## 10 Sense & Sensibility         13       1 settled    
## # … with 217,599 more rows

## To filter:
## stop_words_onix <- stop_words %>% 
##  filter(lexicon == "onix")
## replace anti_join(stop_words) with: anti_join(stop_words_onix)

To find the most common words, we can use dplyr’s count():

tidy_books2 %>% 
  count(word, sort = TRUE)

## # A tibble: 13,914 x 2
##    word       n
##    <chr>  <int>
##  1 miss    1855
##  2 time    1337
##  3 fanny    862
##  4 dear     822
##  5 lady     817
##  6 sir      806
##  7 day      797
##  8 emma     787
##  9 sister   727
## 10 house    699
## # … with 13,904 more rows
…
1.4 The gutenbergr package

The gutenbergr package can pull public domain works from the Project Gutenberg collection. The gutenberg_download() function can pull works by their Project Gutenberg ID. The package also has functions that can look at metadata, taking out unhelpful header/footer data, and look at information about authors.

gutenberg_metadata contains information about each work in the collection, such as the ID number of each work, the author, and which language it is in. To find texts we can use a variety of methods:

gutenberg_metadata %>% 
  filter(author == "Wells, H. G. (Herbert George)")

## # A tibble: 81 x 8
##    gutenberg_id title author gutenberg_autho… language gutenberg_books…
##           <int> <chr> <chr>             <int> <chr>    <chr>           
##  1           35 The … Wells…               30 en       Science Fiction…
##  2           36 The … Wells…               30 en       Movie Books/Sci…
##  3          159 The … Wells…               30 en       Best Books Ever…
##  4          456 The … Wells…               30 en       Science Fiction 
##  5          524 Ann … Wells…               30 en       <NA>            
##  6          718 Tono… Wells…               30 en       Best Books Ever…
##  7          775 When… Wells…               30 en       Science Fiction 
##  8          780 The … Wells…               30 en       <NA>            
##  9         1013 The … Wells…               30 en       Science Fiction…
## 10         1046 God,… Wells…               30 en       Bestsellers, Am…
## # … with 71 more rows, and 2 more variables: rights <chr>, has_text <lgl>
…
Next, we’ll need to tidy the data:

tidy_hgwells <- hgwells %>% 
  unnest_tokens(word, text) %>% 
  anti_join(stop_words)

What are the most common words in these novels?

tidy_hgwells %>% 
  count(word, sort = TRUE)

## # A tibble: 11,769 x 2
##    word       n
##    <chr>  <int>
##  1 time     454
##  2 people   302
##  3 door     260
##  4 heard    249
##  5 black    232
##  6 stood    229
##  7 white    222
##  8 hand     218
##  9 kemp     213
## 10 eyes     210
## # … with 11,759 more rows
…
## Using mirror http://aleph.gutenberg.org

Then we’ll tidy them:

tidy_bronte <- bronte %>% 
  unnest_tokens(word, text) %>% 
  anti_join(stop_words)

An now we’ll look at the most common words:

tidy_bronte %>% 
  count(word, sort = TRUE)

## # A tibble: 23,050 x 2
##    word       n
##    <chr>  <int>
##  1 time    1065
##  2 miss     855
##  3 day      827
##  4 hand     768
##  5 eyes     713
##  6 night    647
##  7 heart    638
##  8 looked   601
##  9 door     592
## 10 half     586
## # … with 23,040 more rows
…
The output argument in unnest_tokens() is word. This is useful because the sentiment lexicons and the stop words datasets also have columns named word, thus making it easier to do inner and anti joins.

Now that the data is tidy, let’s filter() the nrc lexicon for joy and join it with tidy_books3 filtering for Emma.

nrc_joy <- sentiments_nrc %>% 
  filter(sentiment == "joy")

tidy_books3 %>% 
  filter(book == "Emma") %>% 
  inner_join(nrc_joy) %>% 
  count(word, sort = TRUE)

## # A tibble: 303 x 2
##    word        n
##    <chr>   <int>
##  1 good      359
##  2 young     192
##  3 friend    166
##  4 hope      143
##  5 happy     125
##  6 love      117
##  7 deal       92
##  8 found      92
##  9 present    89
## 10 kind       82
## # … with 293 more rows
…
Having read a few of the books plotted, I have a good guess at what is going on in the plot when there are sudden changes in the net sentiment between chunks.

2.3 Comparing the three sentiment dictionaries

Some sentiment lexicons are more appropriate for some questions than others. Sometimes they’re tailor made for certain purposes or they’re made by people from a particular field to suite that field. Because of this, it can be useful to compare lexicons. Let’s look at the book Pride & Prejudice with three different lexicons.

pride_prejudice <- tidy_books %>% 
  filter(book == "Pride & Prejudice")
pride_prejudice

## # A tibble: 122,204 x 4
##    book              linenumber chapter word     
##    <fct>                  <int>   <int> <chr>    
##  1 Pride & Prejudice          1       0 pride    
##  2 Pride & Prejudice          1       0 and      
##  3 Pride & Prejudice          1       0 prejudice
##  4 Pride & Prejudice          3       0 by       
##  5 Pride & Prejudice          3       0 jane     
##  6 Pride & Prejudice          3       0 austen   
##  7 Pride & Prejudice          7       1 chapter  
##  8 Pride & Prejudice          7       1 1        
##  9 Pride & Prejudice         10       1 it       
## 10 Pride & Prejudice         10       1 is       
## # … with 122,194 more rows
…
It looks like NRC has about a thousand more negative sentiment words than positive sentiment words. Bing et al. has 2776 more negative words than positive words. This could be making a difference in the Pride & Prejudice plots above.

2.4 Most common positive and negative words

Linking the texts with sentiments allows us to look at the most commong positive and negative words are. Let’s look at Austen’s works using the Bing et al. lexicon.

bing_word_counts <- tidy_books %>% 
  inner_join(sentiments_bing) %>% 
  count(word, sentiment, sort = TRUE) %>% 
  ungroup()
bing_word_counts

## # A tibble: 2,585 x 3
##    word     sentiment     n
##    <chr>    <chr>     <int>
##  1 miss     negative   1855
##  2 well     positive   1523
##  3 good     positive   1380
##  4 great    positive    981
##  5 like     positive    725
##  6 better   positive    639
##  7 enough   positive    613
##  8 happy    positive    534
##  9 love     positive    495
## 10 pleasure positive    462
## # … with 2,575 more rows
…
Oh no! The word “miss” is marked as negative, as in “miss the mark” or “I miss my dog” when likely Austen used it as a title for characters such as “Hello Miss Emma”. We can add the word “miss” to a set of custom stop words.

custom_stop_words <- bind_rows(tibble(word = c("miss"), lexicon = c("custom")),
                               stop_words)
custom_stop_words

## # A tibble: 1,150 x 2
##    word        lexicon
##    <chr>       <chr>  
##  1 miss        custom 
##  2 a           SMART  
##  3 a's         SMART  
##  4 able        SMART  
##  5 about       SMART  
##  6 above       SMART  
##  7 according   SMART  
##  8 accordingly SMART  
##  9 across      SMART  
## 10 actually    SMART  
## # … with 1,140 more rows

Now let’s plot number of positive and negative words without stop words:

bing_word_counts <- tidy_books %>% 
  anti_join(custom_stop_words) %>% 
  inner_join(sentiments_bing) %>% 
  count(word, sentiment, sort = TRUE) %>% 
  ungroup()
bing_word_counts

## # A tibble: 2,554 x 3
##    word      sentiment     n
##    <chr>     <chr>     <int>
##  1 happy     positive    534
##  2 love      positive    495
##  3 pleasure  positive    462
##  4 poor      negative    424
##  5 happiness positive    369
##  6 comfort   positive    292
##  7 doubt     negative    281
##  8 affection positive    272
##  9 perfectly positive    271
## 10 glad      positive    263
## # … with 2,544 more rows
…
First, let’s count the most common words. Use dplyr’s group_by() and join() functions.

book_words <- austen_books() %>%
  unnest_tokens(word, text) %>% 
  count(book, word, sort = TRUE)

total_words <- book_words %>% 
  group_by(book) %>% 
  summarise(total = sum(n))

book_words2 <- left_join(book_words, total_words, by = "book")

book_words2

## # A tibble: 40,379 x 4
##    book              word      n  total
##    <fct>             <chr> <int>  <int>
##  1 Mansfield Park    the    6206 160460
##  2 Mansfield Park    to     5475 160460
##  3 Mansfield Park    and    5438 160460
##  4 Emma              to     5239 160996
##  5 Emma              the    5201 160996
##  6 Emma              and    4896 160996
##  7 Mansfield Park    of     4778 160460
##  8 Pride & Prejudice the    4331 122204
##  9 Emma              of     4291 160996
## 10 Pride & Prejudice to     4162 122204
## # … with 40,369 more rows
…
Here we see that there a few words that occur frequently and many words that occur less frequently.

3.2 Zipf’s Law

Having distributions like the one above is very common in language and follows Zipf’s Law that the frequency that word appears in a document is inversely proportional to its rank.

freq_by_rank <- book_words2 %>% 
  group_by(book) %>%
  mutate(rank = row_number(),
         'term frequency' = n/total)
freq_by_rank

## # A tibble: 40,379 x 6
## # Groups:   book [6]
##    book              word      n  total  rank `term frequency`
##    <fct>             <chr> <int>  <int> <int>            <dbl>
##  1 Mansfield Park    the    6206 160460     1           0.0387
##  2 Mansfield Park    to     5475 160460     2           0.0341
##  3 Mansfield Park    and    5438 160460     3           0.0339
##  4 Emma              to     5239 160996     1           0.0325
##  5 Emma              the    5201 160996     2           0.0323
##  6 Emma              and    4896 160996     3           0.0304
##  7 Mansfield Park    of     4778 160460     4           0.0298
##  8 Pride & Prejudice the    4331 122204     1           0.0354
##  9 Emma              of     4291 160996     4           0.0267
## 10 Pride & Prejudice to     4162 122204     2           0.0341
## # … with 40,369 more rows
…
3.3 The bind_tf_idf function

The bind_tf_idf function is part of the tidytext package. It takes a data frame with tidy text (one row per term per document). The arguments are as follows: bind_tf_idf(tbl, term, document, n) where tbl is a tidy text dataset, term is the column containing terms as string or symbol, document is the column containing the document IDs, as string or symbol, and n is the column containing document-term counts as string or symbol. Run ?bind_tf_idf after you’ve loaded the tidytext package.

Let’s use it:

book_words_bindtf <- book_words %>% 
  bind_tf_idf(word, book, n)

## notice here that we did not specify the `tbl` because we already said we're using the `book_words` data frame.

book_words_bindtf

## # A tibble: 40,379 x 6
##    book              word      n     tf   idf tf_idf
##    <fct>             <chr> <int>  <dbl> <dbl>  <dbl>
##  1 Mansfield Park    the    6206 0.0387     0      0
##  2 Mansfield Park    to     5475 0.0341     0      0
##  3 Mansfield Park    and    5438 0.0339     0      0
##  4 Emma              to     5239 0.0325     0      0
##  5 Emma              the    5201 0.0323     0      0
##  6 Emma              and    4896 0.0304     0      0
##  7 Mansfield Park    of     4778 0.0298     0      0
##  8 Pride & Prejudice the    4331 0.0354     0      0
##  9 Emma              of     4291 0.0267     0      0
## 10 Pride & Prejudice to     4162 0.0341     0      0
## # … with 40,369 more rows

Here we see that the most common words (the, two, and, of, etc.) have an idf of 0 and a tf-idf of essentially zero.

Let’s look at terms that have high tf-idf:

 book_words_bindtf %>% 
  arrange(desc(tf_idf))

## # A tibble: 40,379 x 6
##    book                word          n      tf   idf  tf_idf
##    <fct>               <chr>     <int>   <dbl> <dbl>   <dbl>
##  1 Sense & Sensibility elinor      623 0.00519  1.79 0.00931
##  2 Sense & Sensibility marianne    492 0.00410  1.79 0.00735
##  3 Mansfield Park      crawford    493 0.00307  1.79 0.00551
##  4 Pride & Prejudice   darcy       373 0.00305  1.79 0.00547
##  5 Persuasion          elliot      254 0.00304  1.79 0.00544
##  6 Emma                emma        786 0.00488  1.10 0.00536
##  7 Northanger Abbey    tilney      196 0.00252  1.79 0.00452
##  8 Emma                weston      389 0.00242  1.79 0.00433
##  9 Pride & Prejudice   bennet      294 0.00241  1.79 0.00431
## 10 Persuasion          wentworth   191 0.00228  1.79 0.00409
## # … with 40,369 more rows
…
I’ll use the function gutenberg_download() from the gutenbergr package. Because these are all from different authors, we’ll add the argument meta_fields = "author" to make sure it is included in the data frame.

physics <- gutenberg_download(c(37729, 14725, 13476, 30155), 
                              meta_fields = "author")

## Next we'll tidy the data

physics_words <- physics %>% 
  unnest_tokens(word, text) %>% 
  count(author, word, sort = TRUE)
## in `count(author, word, sort = TRUE)` the `count` function is grouping by author, then by word, sorting in descending order.
physics_words

## # A tibble: 12,671 x 3
##    author              word      n
##    <chr>               <chr> <int>
##  1 Galilei, Galileo    the    3760
##  2 Tesla, Nikola       the    3604
##  3 Huygens, Christiaan the    3553
##  4 Einstein, Albert    the    2993
##  5 Galilei, Galileo    of     2049
##  6 Einstein, Albert    of     2028
##  7 Tesla, Nikola       of     1737
##  8 Huygens, Christiaan of     1708
##  9 Huygens, Christiaan to     1207
## 10 Tesla, Nikola       a      1176
## # … with 12,661 more rows

We see lots of stop words here. This is very common. When we calculate te tf-idf, we’ll see which words are most important. One thing we’ll need to be careful of is that each of these documents are different lengths. Remember the arguments for bind_tf_idf(tbl, term, document, n). In this case, the term is still word but the document is author.

library(forcats)

physics_tfidf <- physics_words %>% 
  bind_tf_idf(word, author, n) %>% 
  mutate(word = fct_reorder(word, tf_idf)) %>% 
  mutate(author = factor(author, levels = c("Galilei, Galileo", 
                                            "Huygens, Christiaan",
                                            "Tesla, Nikola", 
                                            "Einstein, Albert")))
physics_tfidf

## # A tibble: 12,671 x 6
##    author              word      n     tf   idf tf_idf
##    <fct>               <fct> <int>  <dbl> <dbl>  <dbl>
##  1 Galilei, Galileo    the    3760 0.0935     0      0
##  2 Tesla, Nikola       the    3604 0.0913     0      0
##  3 Huygens, Christiaan the    3553 0.0928     0      0
##  4 Einstein, Albert    the    2993 0.0952     0      0
##  5 Galilei, Galileo    of     2049 0.0510     0      0
##  6 Einstein, Albert    of     2028 0.0645     0      0
##  7 Tesla, Nikola       of     1737 0.0440     0      0
##  8 Huygens, Christiaan of     1708 0.0446     0      0
##  9 Huygens, Christiaan to     1207 0.0315     0      0
## 10 Tesla, Nikola       a      1176 0.0298     0      0
## # … with 12,661 more rows
…
