ModernDive Learning Checks - Completed
…
Answer:

library("dplyr") 
library("nycflights13")
library("knitr")

Loading a package tells Rstudio to switch “on” that particular package.

Practice 1.4.2

Explore the flights data frame by calling up the flights tibble.

flights

## # A tibble: 336,776 x 20
##     year month   day dep_time sched_dep_time dep_delay arr_time
##    <int> <int> <int>    <int>          <int>     <dbl>    <int>
##  1  2013     1     1      517            515         2      830
##  2  2013     1     1      533            529         4      850
##  3  2013     1     1      542            540         2      923
##  4  2013     1     1      544            545        -1     1004
##  5  2013     1     1      554            600        -6      812
##  6  2013     1     1      554            558        -4      740
##  7  2013     1     1      555            600        -5      913
##  8  2013     1     1      557            600        -3      709
##  9  2013     1     1      557            600        -3      838
## 10  2013     1     1      558            600        -2      753
## # … with 336,766 more rows, and 13 more variables: sched_arr_time <int>,
## #   arr_delay <dbl>, carrier <chr>, flight <int>, tailnum <chr>,
## #   origin <chr>, dest <chr>, air_time <dbl>, distance <dbl>, hour <dbl>,
## #   minute <dbl>, time_hour <dttm>, gain <dbl>
…
Here I have listed all the variables in the data frame weather.

Create a sub data frame to look at the temp or temperature of flights with origin Newark (EWR) during the first half of January.

early_january_weather <- weather %>%
  filter(
    origin == "EWR" &
      month == 1 &
      day <= 15)
early_january_weather

## # A tibble: 358 x 16
##    origin  year month   day  hour  temp  dewp humid wind_dir wind_speed
##    <chr>  <dbl> <dbl> <int> <int> <dbl> <dbl> <dbl>    <dbl>      <dbl>
##  1 EWR     2013     1     1     1  39.0  26.1  59.4      270      10.4 
##  2 EWR     2013     1     1     2  39.0  27.0  61.6      250       8.06
##  3 EWR     2013     1     1     3  39.0  28.0  64.4      240      11.5 
##  4 EWR     2013     1     1     4  39.9  28.0  62.2      250      12.7 
##  5 EWR     2013     1     1     5  39.0  28.0  64.4      260      12.7 
##  6 EWR     2013     1     1     6  37.9  28.0  67.2      240      11.5 
##  7 EWR     2013     1     1     7  39.0  28.0  64.4      240      15.0 
##  8 EWR     2013     1     1     8  39.9  28.0  62.2      250      10.4 
##  9 EWR     2013     1     1     9  39.9  28.0  62.2      260      15.0 
## 10 EWR     2013     1     1    10  41    28.0  59.6      260      13.8 
## # … with 348 more rows, and 6 more variables: wind_gust <dbl>,
## #   precip <dbl>, pressure <dbl>, visib <dbl>, time_hour <dttm>,
## #   temp_in_C <dbl>
…
x %>% 
  a() %>% 
  b() %>% 
  c()

Often times it is helpful to read %>% as “then”. This is similar to in ggplot() using the + symbol to add a chain of actions. With %>% we can chain two pieces of code together.

For example, if I wanted to create a new data frame named alaska_flights the code would be alaska_flights <- flights. This code is telling R to take the data frame flights and create a new data frame named alaska_flights. Next, I want to filter the data frame flights by carrier AS. This code would be filter(carrier == "AS"). Put all together, it would be:

alaska_flights <- flights %>% 
  filter(carrier == "AS")
as_tibble(alaska_flights)

## # A tibble: 714 x 20
##     year month   day dep_time sched_dep_time dep_delay arr_time
##    <int> <int> <int>    <int>          <int>     <dbl>    <int>
##  1  2013     1     1      724            725        -1     1020
##  2  2013     1     1     1808           1815        -7     2111
##  3  2013     1     2      722            725        -3      949
##  4  2013     1     2     1818           1815         3     2131
##  5  2013     1     3      724            725        -1     1012
##  6  2013     1     3     1817           1815         2     2121
##  7  2013     1     4      725            725         0     1031
##  8  2013     1     4     1808           1815        -7     2101
##  9  2013     1     5      725            725         0     1011
## 10  2013     1     5     1803           1815       -12     2118
## # … with 704 more rows, and 13 more variables: sched_arr_time <int>,
## #   arr_delay <dbl>, carrier <chr>, flight <int>, tailnum <chr>,
## #   origin <chr>, dest <chr>, air_time <dbl>, distance <dbl>, hour <dbl>,
## #   minute <dbl>, time_hour <dttm>, gain <dbl>
…
You can also add the following:

| or

& and

For example, this is how to filter flights for all rows that departed from JFK, were headed to Burlington, Vermont or Seattle, Washington and departed in the months of October, November, or December:

btv_sea_flights_fall <- flights %>% 
  filter(origin == "JFK" & 
           (dest == "BTV" | dest == "SEA") &
           month >= 10)
as_tibble(btv_sea_flights_fall)

## # A tibble: 815 x 20
##     year month   day dep_time sched_dep_time dep_delay arr_time
##    <int> <int> <int>    <int>          <int>     <dbl>    <int>
##  1  2013    10     1      729            735        -6     1049
##  2  2013    10     1      853            900        -7     1217
##  3  2013    10     1      916            925        -9     1016
##  4  2013    10     1     1216           1221        -5     1326
##  5  2013    10     1     1452           1459        -7     1602
##  6  2013    10     1     1459           1500        -1     1817
##  7  2013    10     1     1754           1800        -6     2102
##  8  2013    10     1     1825           1830        -5     2159
##  9  2013    10     1     1925           1930        -5     2227
## 10  2013    10     1     2238           2245        -7     2348
## # … with 805 more rows, and 13 more variables: sched_arr_time <int>,
## #   arr_delay <dbl>, carrier <chr>, flight <int>, tailnum <chr>,
## #   origin <chr>, dest <chr>, air_time <dbl>, distance <dbl>, hour <dbl>,
## #   minute <dbl>, time_hour <dttm>, gain <dbl>

Or we can look at flights that were not going to Burlington or Seattle with:

not_btv_sea <- flights %>% 
  filter(!(dest == "BTV" | dest == "SEA"))
as_tibble(not_btv_sea)

## # A tibble: 330,264 x 20
##     year month   day dep_time sched_dep_time dep_delay arr_time
##    <int> <int> <int>    <int>          <int>     <dbl>    <int>
##  1  2013     1     1      517            515         2      830
##  2  2013     1     1      533            529         4      850
##  3  2013     1     1      542            540         2      923
##  4  2013     1     1      544            545        -1     1004
##  5  2013     1     1      554            600        -6      812
##  6  2013     1     1      554            558        -4      740
##  7  2013     1     1      555            600        -5      913
##  8  2013     1     1      557            600        -3      709
##  9  2013     1     1      557            600        -3      838
## 10  2013     1     1      558            600        -2      753
## # … with 330,254 more rows, and 13 more variables: sched_arr_time <int>,
## #   arr_delay <dbl>, carrier <chr>, flight <int>, tailnum <chr>,
## #   origin <chr>, dest <chr>, air_time <dbl>, distance <dbl>, hour <dbl>,
## #   minute <dbl>, time_hour <dttm>, gain <dbl>

If we have many airports, we can use the %in% operator:

many_airports <- flights %>% 
  filter(dest %in% c("BTV", "SEA", "PDX", "SFO", "BDL"))
as_tibble(many_airports)

## # A tibble: 21,640 x 20
##     year month   day dep_time sched_dep_time dep_delay arr_time
##    <int> <int> <int>    <int>          <int>     <dbl>    <int>
##  1  2013     1     1      558            600        -2      923
##  2  2013     1     1      611            600        11      945
##  3  2013     1     1      655            700        -5     1037
##  4  2013     1     1      724            725        -1     1020
##  5  2013     1     1      729            730        -1     1049
##  6  2013     1     1      734            737        -3     1047
##  7  2013     1     1      743            730        13     1059
##  8  2013     1     1      745            745         0     1135
##  9  2013     1     1      746            746         0     1119
## 10  2013     1     1      803            800         3     1132
## # … with 21,630 more rows, and 13 more variables: sched_arr_time <int>,
## #   arr_delay <dbl>, carrier <chr>, flight <int>, tailnum <chr>,
## #   origin <chr>, dest <chr>, air_time <dbl>, distance <dbl>, hour <dbl>,
## #   minute <dbl>, time_hour <dttm>, gain <dbl>
…
Here, the group_by() does’t change the data but it adds some meta-data. If we run weather before and after group_by, it would look the same except that # Groups: month [12] would be added under # A tibble: 26,115 x 15:

weather

## # A tibble: 26,115 x 16
##    origin  year month   day  hour  temp  dewp humid wind_dir wind_speed
##    <chr>  <dbl> <dbl> <int> <int> <dbl> <dbl> <dbl>    <dbl>      <dbl>
##  1 EWR     2013     1     1     1  39.0  26.1  59.4      270      10.4 
##  2 EWR     2013     1     1     2  39.0  27.0  61.6      250       8.06
##  3 EWR     2013     1     1     3  39.0  28.0  64.4      240      11.5 
##  4 EWR     2013     1     1     4  39.9  28.0  62.2      250      12.7 
##  5 EWR     2013     1     1     5  39.0  28.0  64.4      260      12.7 
##  6 EWR     2013     1     1     6  37.9  28.0  67.2      240      11.5 
##  7 EWR     2013     1     1     7  39.0  28.0  64.4      240      15.0 
##  8 EWR     2013     1     1     8  39.9  28.0  62.2      250      10.4 
##  9 EWR     2013     1     1     9  39.9  28.0  62.2      260      15.0 
## 10 EWR     2013     1     1    10  41    28.0  59.6      260      13.8 
## # … with 26,105 more rows, and 6 more variables: wind_gust <dbl>,
## #   precip <dbl>, pressure <dbl>, visib <dbl>, time_hour <dttm>,
## #   temp_in_C <dbl>

grouped_weather <- weather %>% 
  group_by(month)
grouped_weather

## # A tibble: 26,115 x 16
## # Groups:   month [12]
##    origin  year month   day  hour  temp  dewp humid wind_dir wind_speed
##    <chr>  <dbl> <dbl> <int> <int> <dbl> <dbl> <dbl>    <dbl>      <dbl>
##  1 EWR     2013     1     1     1  39.0  26.1  59.4      270      10.4 
##  2 EWR     2013     1     1     2  39.0  27.0  61.6      250       8.06
##  3 EWR     2013     1     1     3  39.0  28.0  64.4      240      11.5 
##  4 EWR     2013     1     1     4  39.9  28.0  62.2      250      12.7 
##  5 EWR     2013     1     1     5  39.0  28.0  64.4      260      12.7 
##  6 EWR     2013     1     1     6  37.9  28.0  67.2      240      11.5 
##  7 EWR     2013     1     1     7  39.0  28.0  64.4      240      15.0 
##  8 EWR     2013     1     1     8  39.9  28.0  62.2      250      10.4 
##  9 EWR     2013     1     1     9  39.9  28.0  62.2      260      15.0 
## 10 EWR     2013     1     1    10  41    28.0  59.6      260      13.8 
## # … with 26,105 more rows, and 6 more variables: wind_gust <dbl>,
## #   precip <dbl>, pressure <dbl>, visib <dbl>, time_hour <dttm>,
## #   temp_in_C <dbl>
…
Here we see how many flights departed from each of the three airports in our flights data frame.

Practice 3.4.1: Grouping by more than one variable

The group_by() function can hold multiple variables. For example, if we wanted to look at how many flights departed each of the three airports for each month, we could use group_by(origin, month).

count_by_origin_monthly <- flights %>% 
  group_by(origin, month) %>% 
  summarize(count = n())
count_by_origin_monthly

## # A tibble: 36 x 3
## # Groups:   origin [3]
##    origin month count
##    <chr>  <int> <int>
##  1 EWR        1  9893
##  2 EWR        2  9107
##  3 EWR        3 10420
##  4 EWR        4 10531
##  5 EWR        5 10592
##  6 EWR        6 10175
##  7 EWR        7 10475
##  8 EWR        8 10359
##  9 EWR        9  9550
## 10 EWR       10 10104
## # … with 26 more rows
…
Answer: From the sum_monthly_temp data frame, we see that November, December, and January had the most variability (highest sd) and March and August had the least variability (lowest sd).

Learning Check 3.6

What code would be required to get the mean and standard deviation temperature for each day in 2013 for NYC?

Answer:

daily_summary <- weather %>% 
  group_by(year, month, day) %>% 
  summarise(mean = mean(temp, na.rm = TRUE),
            std_dev = sd(temp, na.rm = TRUE))
daily_summary

## # A tibble: 364 x 5
## # Groups:   year, month [12]
##     year month   day  mean std_dev
##    <dbl> <dbl> <int> <dbl>   <dbl>
##  1  2013     1     1  37.0    4.00
##  2  2013     1     2  28.7    3.45
##  3  2013     1     3  30.0    2.58
##  4  2013     1     4  34.9    2.45
##  5  2013     1     5  37.2    4.01
##  6  2013     1     6  40.1    4.40
##  7  2013     1     7  40.6    3.68
##  8  2013     1     8  40.1    5.77
##  9  2013     1     9  43.2    5.40
## 10  2013     1    10  43.8    2.95
## # … with 354 more rows

Interestingly, we see there are only 364 rows, not 365. Looking at the data frame in R, we see that there is no data for December 31, 2013.

Learning Check 3.7

Recreate by_monthly_origin, but instead of grouping via group_by(origin, month), group variables in a different order group_by(month, origin). What differs in the resulting dataset?

Answer: The original code showed the following output:

count_by_origin_monthly

## # A tibble: 36 x 3
## # Groups:   origin [3]
##    origin month count
##    <chr>  <int> <int>
##  1 EWR        1  9893
##  2 EWR        2  9107
##  3 EWR        3 10420
##  4 EWR        4 10531
##  5 EWR        5 10592
##  6 EWR        6 10175
##  7 EWR        7 10475
##  8 EWR        8 10359
##  9 EWR        9  9550
## 10 EWR       10 10104
## # … with 26 more rows

This shows the data as organized by origin first, then by month.

The following code organizes the same data by month first, then by origin. It is the same data, just organized in a different way.

by_month_origin <- flights %>% 
  group_by(month, origin) %>% 
  summarize(count = n())
by_month_origin

## # A tibble: 36 x 3
## # Groups:   month [12]
##    month origin count
##    <int> <chr>  <int>
##  1     1 EWR     9893
##  2     1 JFK     9161
##  3     1 LGA     7950
##  4     2 EWR     9107
##  5     2 JFK     8421
##  6     2 LGA     7423
##  7     3 EWR    10420
##  8     3 JFK     9697
##  9     3 LGA     8717
## 10     4 EWR    10531
## # … with 26 more rows

Learning Check 3.8

How could we identify how many flights left each of the three airports for each carrier?

Answer: We could group by carrier and origin and then use the n() function in summarize() to count all the rows.

carrier_airport_flightcount <- flights %>% 
  group_by(carrier, origin) %>% 
  summarize(count = n())
carrier_airport_flightcount

## # A tibble: 35 x 3
## # Groups:   carrier [16]
##    carrier origin count
##    <chr>   <chr>  <int>
##  1 9E      EWR     1268
##  2 9E      JFK    14651
##  3 9E      LGA     2541
##  4 AA      EWR     3487
##  5 AA      JFK    13783
##  6 AA      LGA    15459
##  7 AS      EWR      714
##  8 B6      EWR     6557
##  9 B6      JFK    42076
## 10 B6      LGA     6002
## # … with 25 more rows
…
Another example of computing new values based off the values of another variable is in looking at the difference in flights’ departure delay compared to their arrival delay.

flights <- flights %>% 
  mutate(gain = dep_delay - arr_delay)
flights  

## # A tibble: 336,776 x 20
##     year month   day dep_time sched_dep_time dep_delay arr_time
##    <int> <int> <int>    <int>          <int>     <dbl>    <int>
##  1  2013     1     1      517            515         2      830
##  2  2013     1     1      533            529         4      850
##  3  2013     1     1      542            540         2      923
##  4  2013     1     1      544            545        -1     1004
##  5  2013     1     1      554            600        -6      812
##  6  2013     1     1      554            558        -4      740
##  7  2013     1     1      555            600        -5      913
##  8  2013     1     1      557            600        -3      709
##  9  2013     1     1      557            600        -3      838
## 10  2013     1     1      558            600        -2      753
## # … with 336,766 more rows, and 13 more variables: sched_arr_time <int>,
## #   arr_delay <dbl>, carrier <chr>, flight <int>, tailnum <chr>,
## #   origin <chr>, dest <chr>, air_time <dbl>, distance <dbl>, hour <dbl>,
## #   minute <dbl>, time_hour <dttm>, gain <dbl>
…
Answer: It is pretty normally distributed. Most of the gains are between -25 to 25.

Practice 3.6: arrange and sort rows

arrange() can sort/reorder data by a variable. It is typically used after group_by() and summarize().

For example, if we wanted to know the most frequent destination airports for all flights departing NYC in 2013:

freq_dest <- flights %>% 
  group_by(dest) %>% 
  summarize(num_flights = n()) %>% 
  arrange(desc(num_flights))
freq_dest

## # A tibble: 105 x 2
##    dest  num_flights
##    <chr>       <int>
##  1 ORD         17283
##  2 ATL         17215
##  3 LAX         16174
##  4 BOS         15508
##  5 MCO         14082
##  6 CLT         14064
##  7 SFO         13331
##  8 FLL         12055
##  9 MIA         11728
## 10 DCA          9705
## # … with 95 more rows
…
Next, let’s count the number of flights from NYC to each destination but include the information about the destination airport:

named_dest <- flights %>% 
  group_by(dest) %>% 
  summarize(num_flights = n()) %>% 
  arrange(desc(num_flights)) %>% 
  inner_join(airports, by = c("dest" = "faa")) %>% 
  rename(airport_name = name)
named_dest

## # A tibble: 101 x 9
##    dest  num_flights airport_name       lat    lon   alt    tz dst   tzone 
##    <chr>       <int> <chr>            <dbl>  <dbl> <int> <dbl> <chr> <chr> 
##  1 ORD         17283 Chicago Ohare I…  42.0  -87.9   668    -6 A     Ameri…
##  2 ATL         17215 Hartsfield Jack…  33.6  -84.4  1026    -5 A     Ameri…
##  3 LAX         16174 Los Angeles Intl  33.9 -118.    126    -8 A     Ameri…
##  4 BOS         15508 General Edward …  42.4  -71.0    19    -5 A     Ameri…
##  5 MCO         14082 Orlando Intl      28.4  -81.3    96    -5 A     Ameri…
##  6 CLT         14064 Charlotte Dougl…  35.2  -80.9   748    -5 A     Ameri…
##  7 SFO         13331 San Francisco I…  37.6 -122.     13    -8 A     Ameri…
##  8 FLL         12055 Fort Lauderdale…  26.1  -80.2     9    -5 A     Ameri…
##  9 MIA         11728 Miami Intl        25.8  -80.3     8    -5 A     Ameri…
## 10 DCA          9705 Ronald Reagan W…  38.9  -77.0    15    -5 A     Ameri…
## # … with 91 more rows
…
It isn’t so much surprising but there are only two destinations that aren’t on the east coast, LAX and SFO. I suppose ORD is considered mid-west, but as someone from Oregon, I consider Chicago east coast.

Practice 3.8: Other verbs

Other commonly used verbs in the dplyr package include select() for returning only a subset of variables/columns, rename() for changing the names of variables, and top_n() for returning only the top values of a variable.

Practice 3.8.1: select variables

select allows us to return only those variables/columns from a data frame. For example:

flights %>% 
  select(carrier, flight)

## # A tibble: 336,776 x 2
##    carrier flight
##    <chr>    <int>
##  1 UA        1545
##  2 UA        1714
##  3 AA        1141
##  4 B6         725
##  5 DL         461
##  6 UA        1696
##  7 B6         507
##  8 EV        5708
##  9 B6          79
## 10 AA         301
## # … with 336,766 more rows
…
